{
  "watch": [
    "example/**/*.ts",
    "example/**/*.js",
    "src/**/*.js",
    "src/**/*.ts"
  ],
  "execMap": {
    "ts": "ts-node -r 'tsconfig-paths/register'",
    "js": "node"
  },
  "ext": "ts,js,json"
}